<?xml version="1.0" encoding="utf-8"?>
<!-- Generator: Adobe Illustrator 22.1.0, SVG Export Plug-In . SVG Version: 6.00 Build 0)  -->
<svg version="1.1" id="Слой_1" xmlns="http://www.w3.org/2000/svg" xmlns:xlink="http://www.w3.org/1999/xlink" x="0px" y="0px"
	 viewBox="0 0 71.4 114.4" style="enable-background:new 0 0 71.4 114.4;" xml:space="preserve">
<style type="text/css">
	.st0{fill:#FFFFFF;}
	.st1{opacity:0.2;}
</style>
<g>
	<g>
		<g>
			<path class="st0" d="M54.8,108h-38c-5,0-9-4-9-9V15c0-5,4-9,9-9h38c5,0,9,4,9,9v84C63.8,104,59.7,108,54.8,108z M16.8,10
				c-2.8,0-5,2.2-5,5v84c0,2.8,2.2,5,5,5h38c2.8,0,5-2.2,5-5V15c0-2.8-2.2-5-5-5H16.8z"/>
		</g>
	</g>
</g>
<g>
	<path class="st0" d="M47.9,14H23.6c-1,0-1.8-0.8-1.8-1.8V7.8c0-1,0.8-1.8,1.8-1.8h24.3c1,0,1.8,0.8,1.8,1.8v4.4
		C49.7,13.2,48.9,14,47.9,14z"/>
</g>
</svg>
